<?xml version="1.0" encoding="UTF-8" standalone="no"?>
<svg
   viewBox="0 0 1390.7043 342.00719"
   version="1.1"
   id="svg8"
   sodipodi:docname="fedigov_logo.svg"
   width="367.95718mm"
   height="90.489403mm"
   inkscape:version="1.1.2 (0a00cf5339, 2022-02-04, custom)"
   xmlns:inkscape="http://www.inkscape.org/namespaces/inkscape"
   xmlns:sodipodi="http://sodipodi.sourceforge.net/DTD/sodipodi-0.dtd"
   xmlns="http://www.w3.org/2000/svg"
   xmlns:svg="http://www.w3.org/2000/svg">
  <defs
     id="defs12" />
  <sodipodi:namedview
     id="namedview10"
     pagecolor="#ffffff"
     bordercolor="#666666"
     borderopacity="1.0"
     inkscape:pageshadow="2"
     inkscape:pageopacity="0.0"
     inkscape:pagecheckerboard="0"
     showgrid="false"
     units="mm"
     fit-margin-top="0"
     fit-margin-left="0"
     fit-margin-right="0"
     fit-margin-bottom="0"
     inkscape:zoom="0.75878906"
     inkscape:cx="961.40026"
     inkscape:cy="360.44273"
     inkscape:window-width="1920"
     inkscape:window-height="1015"
     inkscape:window-x="0"
     inkscape:window-y="0"
     inkscape:window-maximized="1"
     inkscape:current-layer="svg8"
     inkscape:document-units="mm"
     showguides="true"
     inkscape:guide-bbox="true" />
  <g
     class=""
     transform="matrix(0.81519102,0,0,0.63953351,1006.7493,-16.755778)"
     id="g6"
     style="fill:#a39688;fill-opacity:1">
    <path
       d="M 256,26.2 52,135 H 460 Z M 73,153 v 14 h 366 v -14 z m 16,32 v 206 h 30 V 185 Z m 101.334,0 v 206 h 30 V 185 Z m 101.332,0 v 206 h 30 V 185 Z M 393,185 v 206 h 30 V 185 Z M 73,409 v 30 h 366 v -30 z m -32,48 v 30 h 430 v -30 z"
       fill="#ffffff"
       fill-opacity="1"
       id="path4"
       style="fill:#a39688;fill-opacity:1" />
  </g>
  <g
     id="g6533"
     transform="matrix(1.2730611,0,0,1.2730611,-416.13679,-687.34859)">
    <g
       id="text22805"
       style="font-size:9px;fill:none;stroke-width:0.75" />
    <g
       id="g104535"
       transform="matrix(1.7189439,0,0,1.7189439,-858.87858,-251.43576)">
      <g
         aria-label="Fedi"
         id="text33986"
         style="font-size:144px;fill:#a39688;stroke-width:7.5;stroke-opacity:0.333333">
        <path
           d="m 764.26543,503.54759 q 0,2.016 -1.44,2.016 -1.44,0 -2.016,-3.6 -1.728,-10.368 -7.056,-15.12 -3.456,-3.024 -10.656,-3.744 -2.592,-0.288 -11.52,-0.288 -6.624,0 -15.84,0.432 v 42.048 q 18.432,0.144 22.752,-2.304 4.32,-2.592 5.184,-14.256 0.288,-3.312 1.728,-3.312 1.44,0 1.44,2.16 0,1.296 -0.144,2.16 -0.432,9.936 -0.432,18.432 0,10.944 0.576,17.28 0.144,0.576 0.144,1.728 0,1.728 -1.44,1.728 -1.152,0 -1.44,-0.864 -0.288,-0.864 -1.008,-6.624 -1.152,-8.784 -4.608,-10.944 -3.312,-2.16 -13.392,-2.16 -5.328,0 -9.36,0.288 l 0.144,14.688 -0.288,28.224 q 0,4.176 3.312,5.328 1.584,0.576 7.056,0.432 2.304,0 2.304,1.152 0,1.296 -2.88,1.296 h -1.44 q -2.016,0 -5.472,-0.144 -3.312,0 -4.464,0 l -21.456,0.144 q -2.736,0 -2.736,-1.152 0,-1.152 4.896,-1.44 5.04,-0.288 5.904,-1.296 0.864,-1.152 0.864,-6.768 l -0.144,-82.656 q -0.144,-2.592 -1.584,-3.168 -1.296,-0.72 -7.344,-0.864 -2.304,0 -2.304,-1.584 0,-1.44 2.592,-1.44 h 2.304 q -0.288,0 13.824,0.144 14.256,0.144 23.328,0.144 24.336,0 29.808,-1.152 0.144,1.872 0.864,10.8 0.432,6.048 1.152,10.8 0.288,2.016 0.288,3.456 z"
           style="-inkscape-font-specification:'Bodoni 72, '"
           id="path6536" />
        <path
           d="m 822.44132,563.88359 q 0,1.44 -2.304,5.184 -2.16,3.6 -4.464,5.904 -6.192,6.336 -16.56,6.336 -12.96,0 -21.744,-9.36 -8.64,-9.36 -8.64,-23.184 0,-14.4 8.208,-24.048 8.352,-9.648 20.736,-9.648 10.224,0 17.136,6.048 6.912,5.904 7.344,15.264 -4.608,0.72 -12.24,0.576 l -10.08,-0.144 q -1.008,0 -17.28,0.432 -0.72,4.752 -0.72,9.072 0,14.544 5.472,22.464 5.616,7.776 15.696,7.776 5.76,0 9.216,-2.592 3.456,-2.592 7.488,-9.936 0.576,-1.152 1.584,-1.152 1.152,0 1.152,1.008 z m -12.528,-29.376 q -0.576,-17.28 -12.384,-17.28 -11.664,0 -14.544,17.28 z"
           style="-inkscape-font-specification:'Bodoni 72, '"
           id="path6538" />
        <path
           d="m 895.01709,576.69959 q 0,1.008 -2.016,1.008 h -0.72 q -1.152,0 -2.448,-0.144 -1.152,0 -1.152,0 -7.056,0 -11.952,2.88 -2.016,1.152 -2.448,1.152 -1.296,0 -1.296,-1.728 l 0.144,-4.464 q -6.192,5.904 -14.688,5.904 -12.096,0 -20.016,-9.216 -7.776,-9.36 -7.776,-23.76 0,-14.832 7.776,-24.048 7.92,-9.216 20.592,-9.216 9.792,0 14.688,7.056 v -22.464 q 0,-10.944 -1.008,-13.536 -0.864,-2.16 -2.592,-2.016 -4.176,0.432 -5.04,0.432 -1.872,0 -1.872,-1.296 0,-1.296 1.584,-1.296 l 5.184,0.144 q 4.32,0.144 13.248,-4.032 0.576,-0.288 1.008,-0.288 1.44,0 1.44,3.456 0,0.864 0,3.024 -0.144,2.304 -0.144,4.032 v 49.68 q 0,34.128 0.72,36.576 0.288,1.008 6.768,1.008 2.016,0 2.016,1.152 z m -21.312,-36.144 q 0,-13.824 -3.024,-17.712 -3.888,-4.896 -9.936,-4.896 -7.776,0 -12.384,8.064 -4.608,8.064 -4.608,21.6 0,12.96 4.032,22.176 1.728,3.888 5.04,6.48 3.456,2.448 7.056,2.448 4.464,0 8.064,-2.592 3.6,-2.736 4.608,-6.48 1.152,-3.744 1.152,-29.088 z"
           style="-inkscape-font-specification:'Bodoni 72, '"
           id="path6540" />
        <path
           d="m 918.77706,489.00359 q 0,6.48 -6.48,6.48 -2.736,0 -4.608,-1.728 -1.872,-1.872 -1.872,-4.464 0,-6.768 6.48,-6.768 6.48,0 6.48,6.48 z m 10.8,89.712 q 0,1.296 -2.448,1.296 0.144,0 -3.456,-0.288 -4.32,-0.288 -7.2,-0.288 l -14.976,0.288 q -0.72,0.144 -1.728,0.144 -1.584,0 -1.584,-1.008 0,-1.44 2.88,-1.44 5.472,-0.144 5.904,-0.72 0.576,-0.72 0.576,-6.048 l -0.144,-43.632 q -0.144,-3.6 -0.432,-4.176 -0.144,-0.72 -1.728,-0.72 l -4.176,0.144 q -0.576,0.144 -1.44,0.144 -1.584,0 -1.584,-1.152 0,-1.008 2.448,-1.152 9.648,-0.432 16.56,-4.608 l 1.44,-0.864 q 1.152,2.16 1.152,7.92 0,-0.288 0,1.44 -0.144,1.728 -0.144,5.616 v 39.312 q 0,5.76 0.144,6.768 0.288,1.008 1.584,1.296 2.16,0.576 6.336,0.576 2.016,0 2.016,1.152 z"
           style="-inkscape-font-specification:'Bodoni 72, '"
           id="path6542" />
      </g>
      <g
         aria-label="gov"
         id="text42976"
         style="font-size:144px;font-family:'Bodoni 72';-inkscape-font-specification:'Bodoni 72, ';fill:#a47c42;stroke:#f1b967;stroke-width:7.5;stroke-opacity:0.333333">
        <path
           d="m 1002.9392,523.49157 q 0,6.624 -5.90401,6.624 -2.016,0 -3.744,-1.296 -1.584,-1.44 -1.584,-3.168 0,-0.576 0.432,-1.728 0.432,-1.296 0.432,-2.016 0,-1.872 -2.016,-1.872 -1.728,0 -3.312,1.872 -1.584,1.728 -1.584,3.6 0,0.432 0.72,4.896 0.72,4.464 0.72,6.768 0,9.792 -6.768,16.416 -6.768,6.624 -16.848,6.624 -2.592,0 -9.504,-2.16 -1.872,-0.576 -2.448,-0.576 -3.024,0 -5.472,2.448 -2.448,2.448 -2.448,5.328 0,7.488 9.072,7.488 3.456,0 11.088,-1.296 5.904,-1.008 10.8,-1.008 8.784,0 13.68,4.608 5.04,4.608 5.04,12.816 0,12.384 -10.656,20.592 -10.512,8.208 -26.64,8.208 -11.952,0 -18.864,-4.896 -6.768,-4.752 -6.768,-13.248 0,-8.208 6.336,-12.384 3.168,-2.016 10.08,-3.6 -10.224,-4.032 -10.224,-12.384 0,-10.368 13.248,-14.4 -8.64,-6.768 -8.64,-17.856 0,-10.368 6.624,-16.56 6.624,-6.336 17.424,-6.336 5.904,0 9.504,1.584 3.744,1.584 8.64,6.336 4.608,-6.768 11.376,-6.768 8.20801,0 8.20801,7.344 z m -26.78401,14.256 q 0,-20.88 -11.52,-20.88 -11.232,0 -11.232,19.44 0,21.888 11.952,21.888 10.8,0 10.8,-20.448 z m 11.088,55.152 q 0,-11.952 -14.112,-11.952 -4.032,0 -11.952,1.296 -7.776,1.296 -11.664,1.296 -7.344,3.888 -7.344,13.68 0,7.344 5.184,11.808 5.328,4.464 13.968,4.464 10.944,0 18.432,-6.048 7.488,-5.904 7.488,-14.544 z"
           style="stroke:none"
           id="path6553" />
        <path
           d="m 1064.1391,548.40357 q 0,13.968 -8.496,23.472 -8.496,9.36 -21.168,9.36 -13.104,0 -21.888,-9.36 -8.784,-9.504 -8.784,-23.472 0,-14.4 8.496,-23.904 8.64,-9.504 21.456,-9.504 12.96,0 21.6,9.648 8.784,9.504 8.784,23.76 z m -13.104,-0.144 q 0,-15.84 -4.896,-24.624 -3.6,-6.48 -12.096,-6.48 -8.064,0 -12.672,8.352 -4.464,8.208 -4.464,22.896 0,14.544 4.752,22.752 4.896,8.064 13.536,8.064 6.624,0 9.792,-5.04 6.048,-9.504 6.048,-25.92 z"
           style="stroke:none"
           id="path6555" />
        <path
           d="m 1128.219,517.73157 q 0,1.152 -2.736,1.152 -1.008,0 -2.592,-0.144 h -0.864 q -2.592,0 -4.032,3.168 -0.864,2.736 -1.728,5.472 l -12.096,37.152 q -1.008,2.88 -2.88,8.784 -2.304,7.92 -3.744,7.92 -1.008,0 -2.016,-2.736 -0.72,-1.728 -1.44,-3.888 -11.664,-31.536 -11.808,-31.392 -7.488,-21.312 -9.072,-23.184 -1.296,-1.296 -4.032,-1.152 l -3.312,0.144 q -1.44,0 -1.44,-1.152 0,-1.152 2.016,-1.152 l 10.08,0.288 q 2.304,0 9.072,-0.144 7.344,-0.144 7.632,-0.144 h 0.72 q 1.44,0 1.44,1.008 0,1.152 -4.464,1.152 -4.464,0 -4.464,1.152 0,1.584 1.296,4.752 2.304,5.76 8.928,24.768 2.88,8.496 4.752,12.96 4.032,-12.816 7.2,-22.032 6.336,-18.72 6.336,-20.448 0,-1.296 -2.16,-1.296 -1.152,0 -1.872,0.144 h -1.296 q -1.872,0 -1.872,-1.152 0,-1.008 1.728,-1.008 l 8.928,0.144 5.472,-0.144 q 4.32,-0.144 4.32,1.008 z"
           style="stroke:none"
           id="path6557" />
      </g>
    </g>
  </g>
</svg>
